p8105\_hw3\_hh2767
================
Haoran Hu, hh2767
2018-10-09

``` r
brfss_smart2010 = janitor::clean_names(brfss_smart2010)
colnames(brfss_smart2010)[2] = "location_abbr"
colnames(brfss_smart2010)[3] = "location_desc"
brfss_smart2010 %>% 
  filter(topic == "Overall Health") %>% 
  mutate(response = factor(response, levels = c("Excellent", "Very good", "Good", "Fair", "Poor")))
```

    ## # A tibble: 10,625 x 23
    ##     year location_abbr location_desc class topic question response
    ##    <int> <chr>         <chr>         <chr> <chr> <chr>    <fct>   
    ##  1  2010 AL            AL - Jeffers~ Heal~ Over~ How is ~ Excelle~
    ##  2  2010 AL            AL - Jeffers~ Heal~ Over~ How is ~ Very go~
    ##  3  2010 AL            AL - Jeffers~ Heal~ Over~ How is ~ Good    
    ##  4  2010 AL            AL - Jeffers~ Heal~ Over~ How is ~ Fair    
    ##  5  2010 AL            AL - Jeffers~ Heal~ Over~ How is ~ Poor    
    ##  6  2010 AL            AL - Mobile ~ Heal~ Over~ How is ~ Excelle~
    ##  7  2010 AL            AL - Mobile ~ Heal~ Over~ How is ~ Very go~
    ##  8  2010 AL            AL - Mobile ~ Heal~ Over~ How is ~ Good    
    ##  9  2010 AL            AL - Mobile ~ Heal~ Over~ How is ~ Fair    
    ## 10  2010 AL            AL - Mobile ~ Heal~ Over~ How is ~ Poor    
    ## # ... with 10,615 more rows, and 16 more variables: sample_size <int>,
    ## #   data_value <dbl>, confidence_limit_low <dbl>,
    ## #   confidence_limit_high <dbl>, display_order <int>,
    ## #   data_value_unit <chr>, data_value_type <chr>,
    ## #   data_value_footnote_symbol <chr>, data_value_footnote <chr>,
    ## #   data_source <chr>, class_id <chr>, topic_id <chr>, location_id <chr>,
    ## #   question_id <chr>, respid <chr>, geo_location <chr>
